	annotation	cell_id	filename	position	tp	trap
0	0.0	1.0	/home/alan/Desktop/UoE/softDev/annotGUI/curationGUI/testPoses/pos001_trap003_tp0001_segoutlines.png	1.0	1.0	3.0
1	0.0	2.0	/home/alan/Desktop/UoE/softDev/annotGUI/curationGUI/testPoses/pos001_trap003_tp0001_segoutlines.png	1.0	1.0	3.0
2	0.0	1.0	/home/alan/Desktop/UoE/softDev/annotGUI/curationGUI/testPoses/pos001_trap003_tp0002_segoutlines.png	1.0	2.0	3.0
3	0.0	2.0	/home/alan/Desktop/UoE/softDev/annotGUI/curationGUI/testPoses/pos001_trap003_tp0002_segoutlines.png	1.0	2.0	3.0
4	0.0	1.0	/home/alan/Desktop/UoE/softDev/annotGUI/curationGUI/testPoses/pos001_trap003_tp0003_segoutlines.png	1.0	3.0	3.0
5	0.0	2.0	/home/alan/Desktop/UoE/softDev/annotGUI/curationGUI/testPoses/pos001_trap003_tp0003_segoutlines.png	1.0	3.0	3.0
6	1.0	1.0	/home/alan/Desktop/UoE/softDev/annotGUI/curationGUI/testPoses/pos001_trap004_tp0001_segoutlines.png	1.0	1.0	4.0
7	0.0	2.0	/home/alan/Desktop/UoE/softDev/annotGUI/curationGUI/testPoses/pos001_trap004_tp0001_segoutlines.png	1.0	1.0	4.0
8	1.0	1.0	/home/alan/Desktop/UoE/softDev/annotGUI/curationGUI/testPoses/pos001_trap004_tp0002_segoutlines.png	1.0	2.0	4.0
9	0.0	2.0	/home/alan/Desktop/UoE/softDev/annotGUI/curationGUI/testPoses/pos001_trap004_tp0002_segoutlines.png	1.0	2.0	4.0
10	1.0	1.0	/home/alan/Desktop/UoE/softDev/annotGUI/curationGUI/testPoses/pos001_trap004_tp0003_segoutlines.png	1.0	3.0	4.0
11	0.0	2.0	/home/alan/Desktop/UoE/softDev/annotGUI/curationGUI/testPoses/pos001_trap004_tp0003_segoutlines.png	1.0	3.0	4.0
12	1.0	1.0	/home/alan/Desktop/UoE/softDev/annotGUI/curationGUI/testPoses/pos001_trap006_tp0001_segoutlines.png	1.0	1.0	6.0
13	1.0	2.0	/home/alan/Desktop/UoE/softDev/annotGUI/curationGUI/testPoses/pos001_trap006_tp0001_segoutlines.png	1.0	1.0	6.0
14	1.0	1.0	/home/alan/Desktop/UoE/softDev/annotGUI/curationGUI/testPoses/pos001_trap006_tp0002_segoutlines.png	1.0	2.0	6.0
15	1.0	2.0	/home/alan/Desktop/UoE/softDev/annotGUI/curationGUI/testPoses/pos001_trap006_tp0002_segoutlines.png	1.0	2.0	6.0
16	1.0	1.0	/home/alan/Desktop/UoE/softDev/annotGUI/curationGUI/testPoses/pos001_trap006_tp0003_segoutlines.png	1.0	3.0	6.0
17	1.0	2.0	/home/alan/Desktop/UoE/softDev/annotGUI/curationGUI/testPoses/pos001_trap006_tp0003_segoutlines.png	1.0	3.0	6.0
18	1.0	1.0	/home/alan/Desktop/UoE/softDev/annotGUI/curationGUI/testPoses/pos001_trap008_tp0001_segoutlines.png	1.0	1.0	8.0
19	1.0	1.0	/home/alan/Desktop/UoE/softDev/annotGUI/curationGUI/testPoses/pos001_trap008_tp0002_segoutlines.png	1.0	2.0	8.0
20	1.0	1.0	/home/alan/Desktop/UoE/softDev/annotGUI/curationGUI/testPoses/pos001_trap008_tp0003_segoutlines.png	1.0	3.0	8.0
21	0.0	1.0	/home/alan/Desktop/UoE/softDev/annotGUI/curationGUI/testPoses/pos001_trap010_tp0001_segoutlines.png	1.0	1.0	10.0
22	0.0	2.0	/home/alan/Desktop/UoE/softDev/annotGUI/curationGUI/testPoses/pos001_trap010_tp0001_segoutlines.png	1.0	1.0	10.0
23	0.0	3.0	/home/alan/Desktop/UoE/softDev/annotGUI/curationGUI/testPoses/pos001_trap010_tp0001_segoutlines.png	1.0	1.0	10.0
24	1.0	1.0	/home/alan/Desktop/UoE/softDev/annotGUI/curationGUI/testPoses/pos001_trap010_tp0002_segoutlines.png	1.0	2.0	10.0
25	0.0	2.0	/home/alan/Desktop/UoE/softDev/annotGUI/curationGUI/testPoses/pos001_trap010_tp0002_segoutlines.png	1.0	2.0	10.0
26	0.0	3.0	/home/alan/Desktop/UoE/softDev/annotGUI/curationGUI/testPoses/pos001_trap010_tp0002_segoutlines.png	1.0	2.0	10.0
27	1.0	1.0	/home/alan/Desktop/UoE/softDev/annotGUI/curationGUI/testPoses/pos001_trap010_tp0003_segoutlines.png	1.0	3.0	10.0
28	0.0	2.0	/home/alan/Desktop/UoE/softDev/annotGUI/curationGUI/testPoses/pos001_trap010_tp0003_segoutlines.png	1.0	3.0	10.0
29	0.0	3.0	/home/alan/Desktop/UoE/softDev/annotGUI/curationGUI/testPoses/pos001_trap010_tp0003_segoutlines.png	1.0	3.0	10.0
30	1.0	1.0	/home/alan/Desktop/UoE/softDev/annotGUI/curationGUI/testPoses/pos001_trap011_tp0001_segoutlines.png	1.0	1.0	11.0
31	0.0	2.0	/home/alan/Desktop/UoE/softDev/annotGUI/curationGUI/testPoses/pos001_trap011_tp0001_segoutlines.png	1.0	1.0	11.0
32	1.0	1.0	/home/alan/Desktop/UoE/softDev/annotGUI/curationGUI/testPoses/pos001_trap011_tp0002_segoutlines.png	1.0	2.0	11.0
33	0.0	2.0	/home/alan/Desktop/UoE/softDev/annotGUI/curationGUI/testPoses/pos001_trap011_tp0002_segoutlines.png	1.0	2.0	11.0
34	1.0	1.0	/home/alan/Desktop/UoE/softDev/annotGUI/curationGUI/testPoses/pos001_trap011_tp0003_segoutlines.png	1.0	3.0	11.0
35	1.0	2.0	/home/alan/Desktop/UoE/softDev/annotGUI/curationGUI/testPoses/pos001_trap011_tp0003_segoutlines.png	1.0	3.0	11.0
36	1.0	1.0	/home/alan/Desktop/UoE/softDev/annotGUI/curationGUI/testPoses/pos001_trap013_tp0001_segoutlines.png	1.0	1.0	13.0
37	1.0	2.0	/home/alan/Desktop/UoE/softDev/annotGUI/curationGUI/testPoses/pos001_trap013_tp0001_segoutlines.png	1.0	1.0	13.0
38	1.0	1.0	/home/alan/Desktop/UoE/softDev/annotGUI/curationGUI/testPoses/pos001_trap013_tp0002_segoutlines.png	1.0	2.0	13.0
39	0.0	2.0	/home/alan/Desktop/UoE/softDev/annotGUI/curationGUI/testPoses/pos001_trap013_tp0002_segoutlines.png	1.0	2.0	13.0
40	1.0	1.0	/home/alan/Desktop/UoE/softDev/annotGUI/curationGUI/testPoses/pos001_trap013_tp0003_segoutlines.png	1.0	3.0	13.0
41	0.0	2.0	/home/alan/Desktop/UoE/softDev/annotGUI/curationGUI/testPoses/pos001_trap013_tp0003_segoutlines.png	1.0	3.0	13.0
42	0.0	1.0	/home/alan/Desktop/UoE/softDev/annotGUI/curationGUI/testPoses/pos001_trap014_tp0001_segoutlines.png	1.0	1.0	14.0
43	0.0	2.0	/home/alan/Desktop/UoE/softDev/annotGUI/curationGUI/testPoses/pos001_trap014_tp0001_segoutlines.png	1.0	1.0	14.0
44	0.0	1.0	/home/alan/Desktop/UoE/softDev/annotGUI/curationGUI/testPoses/pos001_trap014_tp0002_segoutlines.png	1.0	2.0	14.0
45	0.0	2.0	/home/alan/Desktop/UoE/softDev/annotGUI/curationGUI/testPoses/pos001_trap014_tp0002_segoutlines.png	1.0	2.0	14.0
46	0.0	1.0	/home/alan/Desktop/UoE/softDev/annotGUI/curationGUI/testPoses/pos001_trap014_tp0003_segoutlines.png	1.0	3.0	14.0
47	0.0	2.0	/home/alan/Desktop/UoE/softDev/annotGUI/curationGUI/testPoses/pos001_trap014_tp0003_segoutlines.png	1.0	3.0	14.0
48	1.0	1.0	/home/alan/Desktop/UoE/softDev/annotGUI/curationGUI/testPoses/pos001_trap016_tp0001_segoutlines.png	1.0	1.0	16.0
49	0.0	2.0	/home/alan/Desktop/UoE/softDev/annotGUI/curationGUI/testPoses/pos001_trap016_tp0001_segoutlines.png	1.0	1.0	16.0
50	1.0	1.0	/home/alan/Desktop/UoE/softDev/annotGUI/curationGUI/testPoses/pos001_trap016_tp0002_segoutlines.png	1.0	2.0	16.0
51	0.0	2.0	/home/alan/Desktop/UoE/softDev/annotGUI/curationGUI/testPoses/pos001_trap016_tp0002_segoutlines.png	1.0	2.0	16.0
52	1.0	1.0	/home/alan/Desktop/UoE/softDev/annotGUI/curationGUI/testPoses/pos001_trap016_tp0003_segoutlines.png	1.0	3.0	16.0
53	0.0	2.0	/home/alan/Desktop/UoE/softDev/annotGUI/curationGUI/testPoses/pos001_trap016_tp0003_segoutlines.png	1.0	3.0	16.0
54	0.0	1.0	/home/alan/Desktop/UoE/softDev/annotGUI/curationGUI/testPoses/pos001_trap017_tp0001_segoutlines.png	1.0	1.0	17.0
55	0.0	1.0	/home/alan/Desktop/UoE/softDev/annotGUI/curationGUI/testPoses/pos001_trap017_tp0002_segoutlines.png	1.0	2.0	17.0
56	1.0	1.0	/home/alan/Desktop/UoE/softDev/annotGUI/curationGUI/testPoses/pos001_trap017_tp0003_segoutlines.png	1.0	3.0	17.0
57	1.0	1.0	/home/alan/Desktop/UoE/softDev/annotGUI/curationGUI/testPoses/pos001_trap018_tp0001_segoutlines.png	1.0	1.0	18.0
58	0.0	2.0	/home/alan/Desktop/UoE/softDev/annotGUI/curationGUI/testPoses/pos001_trap018_tp0001_segoutlines.png	1.0	1.0	18.0
59	1.0	1.0	/home/alan/Desktop/UoE/softDev/annotGUI/curationGUI/testPoses/pos001_trap018_tp0002_segoutlines.png	1.0	2.0	18.0
60	0.0	2.0	/home/alan/Desktop/UoE/softDev/annotGUI/curationGUI/testPoses/pos001_trap018_tp0002_segoutlines.png	1.0	2.0	18.0
61	1.0	1.0	/home/alan/Desktop/UoE/softDev/annotGUI/curationGUI/testPoses/pos001_trap018_tp0003_segoutlines.png	1.0	3.0	18.0
62	1.0	2.0	/home/alan/Desktop/UoE/softDev/annotGUI/curationGUI/testPoses/pos001_trap018_tp0003_segoutlines.png	1.0	3.0	18.0
63	0.0	1.0	/home/alan/Desktop/UoE/softDev/annotGUI/curationGUI/testPoses/pos001_trap019_tp0001_segoutlines.png	1.0	1.0	19.0
64	0.0	2.0	/home/alan/Desktop/UoE/softDev/annotGUI/curationGUI/testPoses/pos001_trap019_tp0001_segoutlines.png	1.0	1.0	19.0
65	1.0	3.0	/home/alan/Desktop/UoE/softDev/annotGUI/curationGUI/testPoses/pos001_trap019_tp0001_segoutlines.png	1.0	1.0	19.0
66	1.0	4.0	/home/alan/Desktop/UoE/softDev/annotGUI/curationGUI/testPoses/pos001_trap019_tp0001_segoutlines.png	1.0	1.0	19.0
67	0.0	1.0	/home/alan/Desktop/UoE/softDev/annotGUI/curationGUI/testPoses/pos001_trap019_tp0002_segoutlines.png	1.0	2.0	19.0
68	0.0	2.0	/home/alan/Desktop/UoE/softDev/annotGUI/curationGUI/testPoses/pos001_trap019_tp0002_segoutlines.png	1.0	2.0	19.0
69	1.0	3.0	/home/alan/Desktop/UoE/softDev/annotGUI/curationGUI/testPoses/pos001_trap019_tp0002_segoutlines.png	1.0	2.0	19.0
70	0.0	4.0	/home/alan/Desktop/UoE/softDev/annotGUI/curationGUI/testPoses/pos001_trap019_tp0002_segoutlines.png	1.0	2.0	19.0
71	0.0	1.0	/home/alan/Desktop/UoE/softDev/annotGUI/curationGUI/testPoses/pos001_trap019_tp0003_segoutlines.png	1.0	3.0	19.0
72	0.0	2.0	/home/alan/Desktop/UoE/softDev/annotGUI/curationGUI/testPoses/pos001_trap019_tp0003_segoutlines.png	1.0	3.0	19.0
73	1.0	4.0	/home/alan/Desktop/UoE/softDev/annotGUI/curationGUI/testPoses/pos001_trap019_tp0003_segoutlines.png	1.0	3.0	19.0
74	0.0	1.0	/home/alan/Desktop/UoE/softDev/annotGUI/curationGUI/testPoses/pos001_trap020_tp0001_segoutlines.png	1.0	1.0	20.0
75	0.0	1.0	/home/alan/Desktop/UoE/softDev/annotGUI/curationGUI/testPoses/pos001_trap020_tp0002_segoutlines.png	1.0	2.0	20.0
76	0.0	1.0	/home/alan/Desktop/UoE/softDev/annotGUI/curationGUI/testPoses/pos001_trap020_tp0003_segoutlines.png	1.0	3.0	20.0
77	0.0	1.0	/home/alan/Desktop/UoE/softDev/annotGUI/curationGUI/testPoses/pos001_trap021_tp0001_segoutlines.png	1.0	1.0	21.0
78	0.0	2.0	/home/alan/Desktop/UoE/softDev/annotGUI/curationGUI/testPoses/pos001_trap021_tp0001_segoutlines.png	1.0	1.0	21.0
79	0.0	1.0	/home/alan/Desktop/UoE/softDev/annotGUI/curationGUI/testPoses/pos001_trap021_tp0002_segoutlines.png	1.0	2.0	21.0
80	0.0	2.0	/home/alan/Desktop/UoE/softDev/annotGUI/curationGUI/testPoses/pos001_trap021_tp0002_segoutlines.png	1.0	2.0	21.0
81	0.0	1.0	/home/alan/Desktop/UoE/softDev/annotGUI/curationGUI/testPoses/pos001_trap021_tp0003_segoutlines.png	1.0	3.0	21.0
82	0.0	2.0	/home/alan/Desktop/UoE/softDev/annotGUI/curationGUI/testPoses/pos001_trap021_tp0003_segoutlines.png	1.0	3.0	21.0
83	0.0	1.0	/home/alan/Desktop/UoE/softDev/annotGUI/curationGUI/testPoses/pos001_trap022_tp0001_segoutlines.png	1.0	1.0	22.0
84	0.0	2.0	/home/alan/Desktop/UoE/softDev/annotGUI/curationGUI/testPoses/pos001_trap022_tp0001_segoutlines.png	1.0	1.0	22.0
85	0.0	1.0	/home/alan/Desktop/UoE/softDev/annotGUI/curationGUI/testPoses/pos001_trap022_tp0002_segoutlines.png	1.0	2.0	22.0
86	0.0	2.0	/home/alan/Desktop/UoE/softDev/annotGUI/curationGUI/testPoses/pos001_trap022_tp0002_segoutlines.png	1.0	2.0	22.0
87	0.0	1.0	/home/alan/Desktop/UoE/softDev/annotGUI/curationGUI/testPoses/pos001_trap022_tp0003_segoutlines.png	1.0	3.0	22.0
88	0.0	2.0	/home/alan/Desktop/UoE/softDev/annotGUI/curationGUI/testPoses/pos001_trap022_tp0003_segoutlines.png	1.0	3.0	22.0
89	1.0	1.0	/home/alan/Desktop/UoE/softDev/annotGUI/curationGUI/testPoses/pos001_trap024_tp0001_segoutlines.png	1.0	1.0	24.0
90	1.0	2.0	/home/alan/Desktop/UoE/softDev/annotGUI/curationGUI/testPoses/pos001_trap024_tp0001_segoutlines.png	1.0	1.0	24.0
91	1.0	1.0	/home/alan/Desktop/UoE/softDev/annotGUI/curationGUI/testPoses/pos001_trap024_tp0002_segoutlines.png	1.0	2.0	24.0
92	1.0	2.0	/home/alan/Desktop/UoE/softDev/annotGUI/curationGUI/testPoses/pos001_trap024_tp0002_segoutlines.png	1.0	2.0	24.0
93	1.0	1.0	/home/alan/Desktop/UoE/softDev/annotGUI/curationGUI/testPoses/pos001_trap024_tp0003_segoutlines.png	1.0	3.0	24.0
94	1.0	2.0	/home/alan/Desktop/UoE/softDev/annotGUI/curationGUI/testPoses/pos001_trap024_tp0003_segoutlines.png	1.0	3.0	24.0
95	1.0	1.0	/home/alan/Desktop/UoE/softDev/annotGUI/curationGUI/testPoses/pos001_trap025_tp0001_segoutlines.png	1.0	1.0	25.0
96	0.0	2.0	/home/alan/Desktop/UoE/softDev/annotGUI/curationGUI/testPoses/pos001_trap025_tp0001_segoutlines.png	1.0	1.0	25.0
97	1.0	1.0	/home/alan/Desktop/UoE/softDev/annotGUI/curationGUI/testPoses/pos001_trap025_tp0002_segoutlines.png	1.0	2.0	25.0
98	0.0	2.0	/home/alan/Desktop/UoE/softDev/annotGUI/curationGUI/testPoses/pos001_trap025_tp0002_segoutlines.png	1.0	2.0	25.0
99	1.0	1.0	/home/alan/Desktop/UoE/softDev/annotGUI/curationGUI/testPoses/pos001_trap025_tp0003_segoutlines.png	1.0	3.0	25.0
100	0.0	2.0	/home/alan/Desktop/UoE/softDev/annotGUI/curationGUI/testPoses/pos001_trap025_tp0003_segoutlines.png	1.0	3.0	25.0
101	1.0	1.0	/home/alan/Desktop/UoE/softDev/annotGUI/curationGUI/testPoses/pos001_trap029_tp0001_segoutlines.png	1.0	1.0	29.0
102	0.0	2.0	/home/alan/Desktop/UoE/softDev/annotGUI/curationGUI/testPoses/pos001_trap029_tp0001_segoutlines.png	1.0	1.0	29.0
103	1.0	1.0	/home/alan/Desktop/UoE/softDev/annotGUI/curationGUI/testPoses/pos001_trap029_tp0002_segoutlines.png	1.0	2.0	29.0
104	0.0	2.0	/home/alan/Desktop/UoE/softDev/annotGUI/curationGUI/testPoses/pos001_trap029_tp0002_segoutlines.png	1.0	2.0	29.0
105	1.0	1.0	/home/alan/Desktop/UoE/softDev/annotGUI/curationGUI/testPoses/pos001_trap029_tp0003_segoutlines.png	1.0	3.0	29.0
106	0.0	2.0	/home/alan/Desktop/UoE/softDev/annotGUI/curationGUI/testPoses/pos001_trap029_tp0003_segoutlines.png	1.0	3.0	29.0
107	0.0	1.0	/home/alan/Desktop/UoE/softDev/annotGUI/curationGUI/testPoses/pos001_trap031_tp0001_segoutlines.png	1.0	1.0	31.0
108	0.0	2.0	/home/alan/Desktop/UoE/softDev/annotGUI/curationGUI/testPoses/pos001_trap031_tp0001_segoutlines.png	1.0	1.0	31.0
109	0.0	1.0	/home/alan/Desktop/UoE/softDev/annotGUI/curationGUI/testPoses/pos001_trap031_tp0002_segoutlines.png	1.0	2.0	31.0
110	0.0	2.0	/home/alan/Desktop/UoE/softDev/annotGUI/curationGUI/testPoses/pos001_trap031_tp0002_segoutlines.png	1.0	2.0	31.0
111	0.0	1.0	/home/alan/Desktop/UoE/softDev/annotGUI/curationGUI/testPoses/pos001_trap031_tp0003_segoutlines.png	1.0	3.0	31.0
112	0.0	2.0	/home/alan/Desktop/UoE/softDev/annotGUI/curationGUI/testPoses/pos001_trap031_tp0003_segoutlines.png	1.0	3.0	31.0
113	0.0	1.0	/home/alan/Desktop/UoE/softDev/annotGUI/curationGUI/testPoses/pos001_trap032_tp0001_segoutlines.png	1.0	1.0	32.0
114	0.0	1.0	/home/alan/Desktop/UoE/softDev/annotGUI/curationGUI/testPoses/pos001_trap032_tp0003_segoutlines.png	1.0	3.0	32.0
115	0.0	1.0	/home/alan/Desktop/UoE/softDev/annotGUI/curationGUI/testPoses/pos001_trap035_tp0001_segoutlines.png	1.0	1.0	35.0
116	0.0	2.0	/home/alan/Desktop/UoE/softDev/annotGUI/curationGUI/testPoses/pos001_trap035_tp0001_segoutlines.png	1.0	1.0	35.0
117	0.0	1.0	/home/alan/Desktop/UoE/softDev/annotGUI/curationGUI/testPoses/pos001_trap035_tp0002_segoutlines.png	1.0	2.0	35.0
118	0.0	2.0	/home/alan/Desktop/UoE/softDev/annotGUI/curationGUI/testPoses/pos001_trap035_tp0002_segoutlines.png	1.0	2.0	35.0
119	1.0	1.0	/home/alan/Desktop/UoE/softDev/annotGUI/curationGUI/testPoses/pos001_trap035_tp0003_segoutlines.png	1.0	3.0	35.0
120	0.0	2.0	/home/alan/Desktop/UoE/softDev/annotGUI/curationGUI/testPoses/pos001_trap035_tp0003_segoutlines.png	1.0	3.0	35.0
121	0.0	1.0	/home/alan/Desktop/UoE/softDev/annotGUI/curationGUI/testPoses/pos001_trap037_tp0001_segoutlines.png	1.0	1.0	37.0
122	0.0	2.0	/home/alan/Desktop/UoE/softDev/annotGUI/curationGUI/testPoses/pos001_trap037_tp0001_segoutlines.png	1.0	1.0	37.0
123	0.0	1.0	/home/alan/Desktop/UoE/softDev/annotGUI/curationGUI/testPoses/pos001_trap037_tp0002_segoutlines.png	1.0	2.0	37.0
124	0.0	2.0	/home/alan/Desktop/UoE/softDev/annotGUI/curationGUI/testPoses/pos001_trap037_tp0002_segoutlines.png	1.0	2.0	37.0
125	0.0	1.0	/home/alan/Desktop/UoE/softDev/annotGUI/curationGUI/testPoses/pos001_trap037_tp0003_segoutlines.png	1.0	3.0	37.0
126	0.0	2.0	/home/alan/Desktop/UoE/softDev/annotGUI/curationGUI/testPoses/pos001_trap037_tp0003_segoutlines.png	1.0	3.0	37.0
127	0.0	3.0	/home/alan/Desktop/UoE/softDev/annotGUI/curationGUI/testPoses/pos001_trap037_tp0003_segoutlines.png	1.0	3.0	37.0
128	1.0	1.0	/home/alan/Desktop/UoE/softDev/annotGUI/curationGUI/testPoses/pos001_trap038_tp0001_segoutlines.png	1.0	1.0	38.0
129	0.0	2.0	/home/alan/Desktop/UoE/softDev/annotGUI/curationGUI/testPoses/pos001_trap038_tp0001_segoutlines.png	1.0	1.0	38.0
130	1.0	1.0	/home/alan/Desktop/UoE/softDev/annotGUI/curationGUI/testPoses/pos001_trap038_tp0002_segoutlines.png	1.0	2.0	38.0
131	0.0	2.0	/home/alan/Desktop/UoE/softDev/annotGUI/curationGUI/testPoses/pos001_trap038_tp0002_segoutlines.png	1.0	2.0	38.0
132	1.0	1.0	/home/alan/Desktop/UoE/softDev/annotGUI/curationGUI/testPoses/pos001_trap038_tp0003_segoutlines.png	1.0	3.0	38.0
133	0.0	2.0	/home/alan/Desktop/UoE/softDev/annotGUI/curationGUI/testPoses/pos001_trap038_tp0003_segoutlines.png	1.0	3.0	38.0
134	1.0	1.0	/home/alan/Desktop/UoE/softDev/annotGUI/curationGUI/testPoses/pos001_trap039_tp0001_segoutlines.png	1.0	1.0	39.0
135	1.0	2.0	/home/alan/Desktop/UoE/softDev/annotGUI/curationGUI/testPoses/pos001_trap039_tp0001_segoutlines.png	1.0	1.0	39.0
136	0.0	3.0	/home/alan/Desktop/UoE/softDev/annotGUI/curationGUI/testPoses/pos001_trap039_tp0001_segoutlines.png	1.0	1.0	39.0
137	1.0	1.0	/home/alan/Desktop/UoE/softDev/annotGUI/curationGUI/testPoses/pos001_trap039_tp0003_segoutlines.png	1.0	3.0	39.0
138	1.0	2.0	/home/alan/Desktop/UoE/softDev/annotGUI/curationGUI/testPoses/pos001_trap039_tp0003_segoutlines.png	1.0	3.0	39.0
139	0.0	3.0	/home/alan/Desktop/UoE/softDev/annotGUI/curationGUI/testPoses/pos001_trap039_tp0003_segoutlines.png	1.0	3.0	39.0
140	1.0	1.0	/home/alan/Desktop/UoE/softDev/annotGUI/curationGUI/testPoses/pos001_trap040_tp0001_segoutlines.png	1.0	1.0	40.0
141	0.0	2.0	/home/alan/Desktop/UoE/softDev/annotGUI/curationGUI/testPoses/pos001_trap040_tp0001_segoutlines.png	1.0	1.0	40.0
142	1.0	1.0	/home/alan/Desktop/UoE/softDev/annotGUI/curationGUI/testPoses/pos001_trap040_tp0002_segoutlines.png	1.0	2.0	40.0
143	0.0	2.0	/home/alan/Desktop/UoE/softDev/annotGUI/curationGUI/testPoses/pos001_trap040_tp0002_segoutlines.png	1.0	2.0	40.0
144	1.0	1.0	/home/alan/Desktop/UoE/softDev/annotGUI/curationGUI/testPoses/pos001_trap040_tp0003_segoutlines.png	1.0	3.0	40.0
145	0.0	2.0	/home/alan/Desktop/UoE/softDev/annotGUI/curationGUI/testPoses/pos001_trap040_tp0003_segoutlines.png	1.0	3.0	40.0
